R Advanced Spatial Lessons
…
# convert to tibble for nicer printing
as_tibble(states)

## Simple feature collection with 58 features and 10 fields
## geometry type:  MULTIPOLYGON
## dimension:      XYZ
## bbox:           xmin: -124.7258 ymin: 24.49813 xmax: -66.9499 ymax: 49.38436
## epsg (SRID):    4326
## proj4string:    +proj=longlat +datum=WGS84 +no_defs
## # A tibble: 58 x 11
##    STATEFP  STATENS    AFFGEOID GEOID STUSPS                 NAME  LSAD
##      <chr>    <chr>       <chr> <chr>  <chr>                <chr> <chr>
##  1      06 01779778 0400000US06    06     CA           California    00
##  2      11 01702382 0400000US11    11     DC District of Columbia    00
##  3      12 00294478 0400000US12    12     FL              Florida    00
##  4      13 01705317 0400000US13    13     GA              Georgia    00
##  5      16 01779783 0400000US16    16     ID                Idaho    00
##  6      17 01779784 0400000US17    17     IL             Illinois    00
##  7      19 01779785 0400000US19    19     IA                 Iowa    00
##  8      21 01779786 0400000US21    21     KY             Kentucky    00
##  9      22 01629543 0400000US22    22     LA            Louisiana    00
## 10      24 01714934 0400000US24    24     MD             Maryland    00
## # ... with 48 more rows, and 4 more variables: ALAND <dbl>, AWATER <dbl>,
## #   region <chr>, geometry <simple_feature>
…
